{
  "list": [
      "1178880290631-01",
      "1178871555720-01",
      "1178640521623-01",
      "1178641845050-01",
      "1178451029719-01",
      "1178450855700-01",
      "1178440243582-01",
      "1178420036256-01",
      "1178173066647-01",
      "1178172663637-01",
      "1178160391687-01",
      "1178160186927-01",
      "1178162465083-01",
      "1178150257264-01",
      "1178150172326-01"
  ],
  "facets": [],
  "paging": {
    "total": 53,
    "pages": 4,
    "currentPage": 1,
    "perPage": 15
  },
  "stats": {
    "stats": {
      "totalValue": {
        "Count": 53,
        "Max": 0.0,
        "Mean": 0.0,
        "Min": 0.0,
        "Missing": 0,
        "StdDev": 0.0,
        "Sum": 0.0,
        "SumOfSquares": 0.0,
        "Facets": {}
      },
      "totalItems": {
        "Count": 53,
        "Max": 0.0,
        "Mean": 0.0,
        "Min": 0.0,
        "Missing": 0,
        "StdDev": 0.0,
        "Sum": 0.0,
        "SumOfSquares": 0.0,
        "Facets": {}
      }
    }
  },
  "reportRecordsLimit": 50000
}
